02 · Image Infection + Dose-Response – Jonsson Lab — Bioinfo Templates
…
total_counts    <- count(master_df_gated, Treatment, Concentration_uM, WellName,
                         name = "total_cell_count")
positive_counts <- master_df_gated %>%
  filter(virus_intensity > infection_threshold) %>%
  count(Treatment, Concentration_uM, WellName, name = "positive_cell_count")

percent_summary <- total_counts %>%
  left_join(positive_counts, by = c("Treatment", "Concentration_uM", "WellName")) %>%
  mutate(positive_cell_count = replace_na(positive_cell_count, 0),
         percent_positive     = (positive_cell_count / total_cell_count) * 100) %>%
  arrange(Treatment, desc(Concentration_uM))

print(percent_summary)

# A tibble: 23 × 6
   Treatment      Concentration_uM WellName total_cell_count positive_cell_count
   <chr>                     <dbl> <chr>               <int>               <int>
 1 Mock                         NA C3                    400                   0
 2 Mock                         NA C4                    400                   0
 3 Mock                         NA C5                    400                   0
 4 Mock                         NA C6                    400                   0
 5 Mock+Ab                      NA C11                   399                   1
 6 Toxicity Cont…               20 D3                    320                   1
 7 Toxicity Cont…               16 D4                    336                   1
 8 Toxicity Cont…               12 D5                    352                   1
 9 Toxicity Cont…                8 D6                    367                   0
10 Toxicity Cont…                4 D7                    382                   0
# ℹ 13 more rows
# ℹ 1 more variable: percent_positive <dbl>
…
