04 · MagPix / Luminex Multiplex – Jonsson Lab — Bioinfo Templates
…
dat_long

# A tibble: 160 × 14
   Location Sample         Original_ID `Total Events` Analyte raw_value censored
   <chr>    <chr>          <chr>                <dbl> <chr>   <chr>     <lgl>   
 1 Row1     PBS_Vehicle_1  ID_1                   116 CCL2    228.47    FALSE   
 2 Row1     PBS_Vehicle_1  ID_1                   116 CCL5    195.34    FALSE   
 3 Row1     PBS_Vehicle_1  ID_1                   116 IL-6    90.83     FALSE   
 4 Row1     PBS_Vehicle_1  ID_1                   116 IL-10   39.91     FALSE   
 5 Row1     PBS_Vehicle_1  ID_1                   116 TNF-al… 14.91     FALSE   
 6 Row1     PBS_Vehicle_1  ID_1                   116 IFN-ga… 23.87     FALSE   
 7 Row1     PBS_Vehicle_1  ID_1                   116 CXCL10  94.7      FALSE   
 8 Row1     PBS_Vehicle_1  ID_1                   116 IL-1be… 63.77     FALSE   
 9 Row1     Disease_Vehic… ID_2                   105 CCL2    1729.63   FALSE   
10 Row1     Disease_Vehic… ID_2                   105 CCL5    337.65    FALSE   
# ℹ 150 more rows
# ℹ 7 more variables: above_ul <lgl>, lod <dbl>, value <dbl>,
#   log10_value <dbl>, Factor1 <fct>, Factor2 <fct>, Group <fct>
…
