03 · Multi-Condition ANOVA – Jonsson Lab — Bioinfo Templates
…
all_data <- imap_dfr(CONDITION_FILES, ~ clean_one(.x, .y))

all_data

# A tibble: 72 × 5
   condition   cell_type  replicate    value log_value
   <chr>       <chr>          <int>    <dbl>     <dbl>
 1 Condition_A CellType_A         1 9546308.      6.98
 2 Condition_A CellType_B         1   26394.      4.42
 3 Condition_A CellType_C         1   21332.      4.33
 4 Condition_A CellType_D         1  119688.      5.08
 5 Condition_A CellType_A         2 9546308.      6.98
 6 Condition_A CellType_B         2   26394.      4.42
 7 Condition_A CellType_C         2   21332.      4.33
 8 Condition_A CellType_D         2  119688.      5.08
 9 Condition_A CellType_A         1 2006114.      6.30
10 Condition_A CellType_B         1   21953.      4.34
# ℹ 62 more rows
…
